Annotating infection episodes • chronogram
…
small_study
#> A chronogram:
#>  Dates column:  calendar_date 
#>  IDs column:    elig_study_id 
#>  Starts on:     2020-01-01 
#>  Ends on:       2021-10-10 
#>  Contains:      3  unique participant IDs
#>  Windowed:      FALSE 
#>  Spanning:      649 - 649 days [min-max per participant]
#>  Metadata:      age, sex, dose_1, date_dose_1, dose_2, date_dose_2 
#>  Size:          129.55 kB 
#>  Pkg_version:   1.0.0 [used to build this cg]
#> 
#> # A tibble: 1,947 × 10
#>    calendar_date elig_study_id   age sex   dose_1 date_dose_1 dose_2 date_dose_2
#>  * <date>        <fct>         <dbl> <fct> <fct>  <date>      <fct>  <date>     
#>  1 2020-01-01    1                40 F     AZD12… 2021-01-05  AZD12… 2021-02-05 
#>  2 2020-01-02    1                40 F     AZD12… 2021-01-05  AZD12… 2021-02-05 
#>  3 2020-01-03    1                40 F     AZD12… 2021-01-05  AZD12… 2021-02-05 
#>  4 2020-01-04    1                40 F     AZD12… 2021-01-05  AZD12… 2021-02-05 
#>  5 2020-01-05    1                40 F     AZD12… 2021-01-05  AZD12… 2021-02-05 
#>  6 2020-01-06    1                40 F     AZD12… 2021-01-05  AZD12… 2021-02-05 
#>  7 2020-01-07    1                40 F     AZD12… 2021-01-05  AZD12… 2021-02-05 
#>  8 2020-01-08    1                40 F     AZD12… 2021-01-05  AZD12… 2021-02-05 
#>  9 2020-01-09    1                40 F     AZD12… 2021-01-05  AZD12… 2021-02-05 
#> 10 2020-01-10    1                40 F     AZD12… 2021-01-05  AZD12… 2021-02-05 
#> # ℹ 1,937 more rows
#> # ℹ 2 more variables: serum_Ab_S <dbl>, serum_Ab_N <dbl>
…
small_study_inf
#> A chronogram:
#>  Dates column:  calendar_date 
#>  IDs column:    elig_study_id 
#>  Starts on:     2020-01-01 
#>  Ends on:       2021-10-10 
#>  Contains:      3  unique participant IDs
#>  Windowed:      FALSE 
#>  Spanning:      649 - 649 days [min-max per participant]
#>  Metadata:      age, sex, dose_1, date_dose_1, dose_2, date_dose_2 
#>  Size:          168.98 kB 
#>  Pkg_version:   1.0.0 [used to build this cg]
#> 
#> # A tibble: 1,947 × 13
#>    calendar_date elig_study_id   age sex   dose_1 date_dose_1 dose_2 date_dose_2
#>  * <date>        <fct>         <dbl> <fct> <fct>  <date>      <fct>  <date>     
#>  1 2020-01-01    1                40 F     AZD12… 2021-01-05  AZD12… 2021-02-05 
#>  2 2020-01-02    1                40 F     AZD12… 2021-01-05  AZD12… 2021-02-05 
#>  3 2020-01-03    1                40 F     AZD12… 2021-01-05  AZD12… 2021-02-05 
#>  4 2020-01-04    1                40 F     AZD12… 2021-01-05  AZD12… 2021-02-05 
#>  5 2020-01-05    1                40 F     AZD12… 2021-01-05  AZD12… 2021-02-05 
#>  6 2020-01-06    1                40 F     AZD12… 2021-01-05  AZD12… 2021-02-05 
#>  7 2020-01-07    1                40 F     AZD12… 2021-01-05  AZD12… 2021-02-05 
#>  8 2020-01-08    1                40 F     AZD12… 2021-01-05  AZD12… 2021-02-05 
#>  9 2020-01-09    1                40 F     AZD12… 2021-01-05  AZD12… 2021-02-05 
#> 10 2020-01-10    1                40 F     AZD12… 2021-01-05  AZD12… 2021-02-05 
#> # ℹ 1,937 more rows
#> # ℹ 5 more variables: serum_Ab_S <dbl>, serum_Ab_N <dbl>, LFT <chr>, PCR <lgl>,
#> #   symptoms <chr>

small_study_inf %>% arrange(PCR)
#> A chronogram:
#>  Dates column:  calendar_date 
#>  IDs column:    elig_study_id 
#>  Starts on:     2020-01-01 
#>  Ends on:       2021-10-10 
#>  Contains:      3  unique participant IDs
#>  Windowed:      FALSE 
#>  Spanning:      649 - 649 days [min-max per participant]
#>  Metadata:      age, sex, dose_1, date_dose_1, dose_2, date_dose_2 
#>  Size:          168.98 kB 
#>  Pkg_version:   1.0.0 [used to build this cg]
#> 
#> # A tibble: 1,947 × 13
#>    calendar_date elig_study_id   age sex   dose_1 date_dose_1 dose_2 date_dose_2
#>  * <date>        <fct>         <dbl> <fct> <fct>  <date>      <fct>  <date>     
#>  1 2020-01-01    1                40 F     AZD12… 2021-01-05  AZD12… 2021-02-05 
#>  2 2020-01-02    1                40 F     AZD12… 2021-01-05  AZD12… 2021-02-05 
#>  3 2020-01-03    1                40 F     AZD12… 2021-01-05  AZD12… 2021-02-05 
#>  4 2020-01-04    1                40 F     AZD12… 2021-01-05  AZD12… 2021-02-05 
#>  5 2020-01-05    1                40 F     AZD12… 2021-01-05  AZD12… 2021-02-05 
#>  6 2020-01-06    1                40 F     AZD12… 2021-01-05  AZD12… 2021-02-05 
#>  7 2020-01-07    1                40 F     AZD12… 2021-01-05  AZD12… 2021-02-05 
#>  8 2020-01-08    1                40 F     AZD12… 2021-01-05  AZD12… 2021-02-05 
#>  9 2020-01-09    1                40 F     AZD12… 2021-01-05  AZD12… 2021-02-05 
#> 10 2020-01-10    1                40 F     AZD12… 2021-01-05  AZD12… 2021-02-05 
#> # ℹ 1,937 more rows
#> # ℹ 5 more variables: serum_Ab_S <dbl>, serum_Ab_N <dbl>, LFT <chr>, PCR <lgl>,
#> #   symptoms <chr>
…
small_study_inf
#> A chronogram:
#>  Dates column:  calendar_date 
#>  IDs column:    elig_study_id 
#>  Starts on:     2020-01-01 
#>  Ends on:       2021-10-10 
#>  Contains:      3  unique participant IDs
#>  Windowed:      FALSE 
#>  Spanning:      649 - 649 days [min-max per participant]
#>  Metadata:      age, sex, dose_1, date_dose_1, dose_2, date_dose_2 
#>  Size:          224.15 kB 
#>  Pkg_version:   1.0.0 [used to build this cg]
#> 
#> # A tibble: 1,947 × 17
#>    calendar_date elig_study_id   age sex   dose_1 date_dose_1 dose_2 date_dose_2
#>  * <date>        <fct>         <dbl> <fct> <fct>  <date>      <fct>  <date>     
#>  1 2020-01-01    1                40 F     AZD12… 2021-01-05  AZD12… 2021-02-05 
#>  2 2020-01-02    1                40 F     AZD12… 2021-01-05  AZD12… 2021-02-05 
#>  3 2020-01-03    1                40 F     AZD12… 2021-01-05  AZD12… 2021-02-05 
#>  4 2020-01-04    1                40 F     AZD12… 2021-01-05  AZD12… 2021-02-05 
#>  5 2020-01-05    1                40 F     AZD12… 2021-01-05  AZD12… 2021-02-05 
#>  6 2020-01-06    1                40 F     AZD12… 2021-01-05  AZD12… 2021-02-05 
#>  7 2020-01-07    1                40 F     AZD12… 2021-01-05  AZD12… 2021-02-05 
#>  8 2020-01-08    1                40 F     AZD12… 2021-01-05  AZD12… 2021-02-05 
#>  9 2020-01-09    1                40 F     AZD12… 2021-01-05  AZD12… 2021-02-05 
#> 10 2020-01-10    1                40 F     AZD12… 2021-01-05  AZD12… 2021-02-05 
#> # ℹ 1,937 more rows
#> # ℹ 9 more variables: serum_Ab_S <dbl>, serum_Ab_N <dbl>, LFT <chr>, PCR <lgl>,
#> #   symptoms <chr>, episode_present_flag <chr>, episode_number <int>,
#> #   episode_start <date>, episode_end <date>
…
