Chronogram assembly • chronogram
…
## Make a chronogram_skeleton ##
small_study <- chronogram_skeleton(
  ids = ids,
  start_date = start,
  end_date = end,
  ## change this to your ID column name ##
  col_ids = elig_study_id,
  ## change this to your date column name ##
  col_calendar_date = calendar_date
)

Now print, to check that you have generated the expected results.

small_study
#> # A tibble: 1,947 × 2
#>    calendar_date elig_study_id
#>  * <date>        <fct>        
#>  1 2020-01-01    1            
#>  2 2020-01-02    1            
#>  3 2020-01-03    1            
#>  4 2020-01-04    1            
#>  5 2020-01-05    1            
#>  6 2020-01-06    1            
#>  7 2020-01-07    1            
#>  8 2020-01-08    1            
#>  9 2020-01-09    1            
#> 10 2020-01-10    1            
#> # ℹ 1,937 more rows
…
Dates are in ddmmyyyy format (anything that
lubridate::dmy() can interpret will work). Providing dates
in other formats is likely to fail with an error. There is a special
case for US formatted dates where dd<=12 and mm<=12:

chronogram_skeleton(
  ids = ids,
  start_date = "01012020",
  ## 1st Dec 2020, provided in mmddyyyy ##
  end_date = "12012020",
  col_ids = elig_study_id,
  col_calendar_date = calendar_date
)
#> # A tibble: 36 × 2
#>    calendar_date elig_study_id
#>  * <date>        <fct>        
#>  1 2020-01-01    1            
#>  2 2020-01-02    1            
#>  3 2020-01-03    1            
#>  4 2020-01-04    1            
#>  5 2020-01-05    1            
#>  6 2020-01-06    1            
#>  7 2020-01-07    1            
#>  8 2020-01-08    1            
#>  9 2020-01-09    1            
#> 10 2020-01-10    1            
#> # ℹ 26 more rows

The above is interpreted as 12-day interval. Swap to ddmmyyy to get
the expected 11 months:

chronogram_skeleton(
  ids = ids,
  start_date = "01012020",
  ## 1st Dec 2020, provided in the correct ddmmyyyy ##
  end_date = "01122020",
  col_ids = elig_study_id,
  col_calendar_date = calendar_date
)
#> # A tibble: 1,008 × 2
#>    calendar_date elig_study_id
#>  * <date>        <fct>        
#>  1 2020-01-01    1            
#>  2 2020-01-02    1            
#>  3 2020-01-03    1            
#>  4 2020-01-04    1            
#>  5 2020-01-05    1            
#>  6 2020-01-06    1            
#>  7 2020-01-07    1            
#>  8 2020-01-08    1            
#>  9 2020-01-09    1            
#> 10 2020-01-10    1            
#> # ℹ 998 more rows
…
