Introducing the chronogram class • chronogram
…
Using tibble-based assembly:

cg_tibble <- 
  tidyr::crossing(
    calendar_date = seq.Date(
      lubridate::dmy(start_date),
      lubridate::dmy(end_date),
      by = 1),
    elig_study_id = metadata$elig_study_id) %>%
  left_join(metadata)
#> Joining with `by = join_by(elig_study_id)`

cg_tibble
#> # A tibble: 276 × 8
#>    calendar_date elig_study_id   age sex   dose_1 date_dose_1 dose_2 date_dose_2
#>    <date>                <dbl> <dbl> <fct> <fct>  <date>      <fct>  <date>     
#>  1 2020-01-01                1    40 F     AZD12… 2021-01-05  AZD12… 2021-02-05 
#>  2 2020-01-01                2    45 F     BNT16… 2021-01-05  BNT16… 2021-02-05 
#>  3 2020-01-01                3    35 M     BNT16… 2021-01-10  BNT16… 2021-03-10 
#>  4 2020-01-02                1    40 F     AZD12… 2021-01-05  AZD12… 2021-02-05 
#>  5 2020-01-02                2    45 F     BNT16… 2021-01-05  BNT16… 2021-02-05 
#>  6 2020-01-02                3    35 M     BNT16… 2021-01-10  BNT16… 2021-03-10 
#>  7 2020-01-03                1    40 F     AZD12… 2021-01-05  AZD12… 2021-02-05 
#>  8 2020-01-03                2    45 F     BNT16… 2021-01-05  BNT16… 2021-02-05 
#>  9 2020-01-03                3    35 M     BNT16… 2021-01-10  BNT16… 2021-03-10 
#> 10 2020-01-04                1    40 F     AZD12… 2021-01-05  AZD12… 2021-02-05 
#> # ℹ 266 more rows
…
cg_tibble
#> # A tibble: 368 × 8
#>    calendar_date elig_study_id   age sex   dose_1 date_dose_1 dose_2 date_dose_2
#>    <date>                <dbl> <dbl> <fct> <fct>  <date>      <fct>  <date>     
#>  1 2020-01-01                1    40 F     AZD12… 2021-01-05  AZD12… 2021-02-05 
#>  2 2020-01-01                2    45 F     BNT16… 2021-01-05  BNT16… 2021-02-05 
#>  3 2020-01-01                3    35 M     BNT16… 2021-01-10  BNT16… 2021-03-10 
#>  4 2020-01-01                3    35 M     BNT16… 2021-01-10  BNT16… 2021-03-10 
#>  5 2020-01-02                1    40 F     AZD12… 2021-01-05  AZD12… 2021-02-05 
#>  6 2020-01-02                2    45 F     BNT16… 2021-01-05  BNT16… 2021-02-05 
#>  7 2020-01-02                3    35 M     BNT16… 2021-01-10  BNT16… 2021-03-10 
#>  8 2020-01-02                3    35 M     BNT16… 2021-01-10  BNT16… 2021-03-10 
#>  9 2020-01-03                1    40 F     AZD12… 2021-01-05  AZD12… 2021-02-05 
#> 10 2020-01-03                2    45 F     BNT16… 2021-01-05  BNT16… 2021-02-05 
#> # ℹ 358 more rows
…
