Chronogram assembly from SQL • chronogram
…
See the dbplyr documentation for further info: https://dbplyr.tidyverse.org/index.html .

As our example is small, we want to move all the data into R, to do
this use dbplyr::collect().

metadata <- tbl(
  pitch_db,
  ## give the name of the SQL table below ##
  "metadata"
) %>%
  collect()

metadata
#> # A tibble: 587 × 6
#>       ID Centre_code Previous_infection Vaccine_interval dose_1_date dose_2_date
#>    <int>       <int> <chr>              <chr>                  <dbl>       <dbl>
#>  1  4001           4 Y                  LONG                   18615       18699
#>  2  4002           4 Y                  SHORT                  18639       18670
#>  3  4003           4 Y                  LONG                   18597       18667
#>  4  4004           4 Y                  LONG                   18605       18676
#>  5  4005           4 Y                  LONG                   18602       18707
#>  6  4006           4 N                  LONG                   18628       18677
#>  7  4007           4 Y                  LONG                   18611       18682
#>  8  4008           4 Y                  LONG                   18602       18703
#>  9  4009           4 Y                  LONG                   18609       18680
#> 10  4010           4 Y                  LONG                   18614       18685
#> # ℹ 577 more rows
…
